"Name","Pin","Function","Symbolic Name","Drive Capacity","IRQ","Mode","Output type","Port Input Mode","Pull up","Port Capabilities"
"AVCC0","56","ADC_AVCC0","","","","","","","",""
"AVSS0","57","ADC_AVSS0","","","","","","","",""
"P000","64","ADC0_AN00","AN00","","","Analog mode","","","","ADC0: AN00
CMP0: IVCMP2
CTSU0: TS21
IRQ0: IRQ6
OPAMP0: AMP+"
"P001","63","ADC0_AN01","AN01","","","Analog mode","","","","ADC0: AN01
CMP0: IVREF2
CTSU0: TS22
IRQ0: IRQ7
OPAMP0: AMP-"
"P002","62","GPIO","P002","","None","Input mode","","","None","ADC0: AN02
IRQ0: IRQ2
OPAMP0: AMPO"
"P003","61","ADC0_AN03","AN03","","","Analog mode","","","","ADC0: AN03
OPAMP3: AMPO"
"P004","60","GPIO","SW0","","None","Input mode","","","None","ADC0: AN04
CTSU0: TS25
DAC122: DA
IRQ0: IRQ3"
"P010","59","","","","","Disabled","","","","ADC: VREFH0
ADC0: AN05
OPAMP1: AMPO"
"P011","58","","","","","Disabled","","","","ADC: VREFL0
ADC0: AN06
DAC122: DA
OPAMP2: AMPO"
"P012","55","GPIO","SW1","","","Input mode","","","None","ADC0: AN07
CMP0: IVREF0
OPAMP1: AMP-"
"P013","54","GPIO","SW2","","","Input mode","","","None","ADC0: AN08
CMP0: IVCMP0
OPAMP1: AMP+"
"P014","53","GPIO","SW3","","","Input mode","","","None","ADC0: AN09
CMP0: IVREF1
CTSU0: TS29
DAC120: DA
OPAMP2: AMP-"
"P015","52","GPIO","SW7","","None","Input mode","","","None","ADC0: AN10
CMP0: IVCMP1
CTSU0: TS28
DAC121: DA
IRQ0: IRQ7
OPAMP2: AMP+"
"P100","48","GPIO","","","None","Input mode","","CMOS","None","ADC0: AN22
AGT0: AGTIO
CMP0: CMPIN0
CTSU0: TS26
DALI0: DRX
GPT5: GTIOCB
IIC1: SCL
IRQ0: IRQ2
KINT0: KRM0
POEG0: GTETRG
SCI0: RXD_MISO
SCI0: SCL
SCI1: SCK
SPI0: MISO"
"P101","47","GPIO","","","None","Input mode","","","None","ADC0: AN21
AGT0: AGTEE
CMP0: CMPREF0
CTSU0: TS16
DALI0: DTX
GPT5: GTIOCA
IIC1: SDA
IRQ0: IRQ1
KINT0: KRM1
POEG1: GTETRG
SCI0: SDA
SCI0: TXD_MOSI
SCI1: CTS_RTS_SS
SPI0: MOSI"
"P102","46","GPIO","","","","Input mode","","","None","ADC0: ADTRG
ADC0: AN20
AGT0: AGTO
CAN0: CRX
CMP0: CMPIN1
CTSU0: TS15
GPT2: GTIOCB
KINT0: KRM2
OPS0: GTOWLO
SCI0: SCK
SPI0: RSPCK"
"P103","45","GPIO","","","","Input mode","","","None","ADC0: AN19
CAN0: CTX
CMP0: CMPREF1
CTSU0: TS14
GPT2: GTIOCA
KINT0: KRM3
OPS0: GTOWUP
SCI0: CTS_RTS_SS
SPI0: SSL0"
"P104","44","SCI0_RXD_MISO","SCI0_RXD_MISO","Low","None","Peripheral mode","CMOS","","input pull-up","ADC0: AN18
CTSU0: TS13
GPT1: GTIOCB
IRQ0: IRQ1
KINT0: KRM4
POEG1: GTETRG
SCI0: RXD_MISO
SCI0: SCL
SPI0: SSL1"
"P105","43","GPIO","RS485_DE","Medium","None","Output mode (Initial Low)","","","None","ADC0: AN17
GPT1: GTIOCA
IRQ0: IRQ0
KINT0: KRM5
POEG0: GTETRG
SPI0: SSL2"
"P106","42","GPIO","RS485_RE","Medium","","Output mode (Initial Low)","","","None","ADC0: AN16
GPT0: GTIOCB
KINT0: KRM6
SPI0: SSL3"
"P107","41","GPIO","LED0","Medium","","Output mode (Initial Low)","","","None","GPT0: GTIOCA
KINT0: KRM7"
"P108","33","DEBUG0_SWDIO","SWDIO","Low","","Peripheral mode","","","None","DEBUG0: SWDIO
GPT0: GTIOCB
OPS0: GTOULO
SCI9: CTS_RTS_SS
SPI1: SSL0"
"P109","34","GPIO","LED4","Medium","","Output mode (Initial Low)","CMOS","","None","CAN0: CTX
CGC0: CLKOUT
CTSU0: TS10
GPT1: GTIOCA
OPS0: GTOVUP
SCI1: SCK
SCI9: SDA
SCI9: TXD_MOSI
SPI1: MOSI"
"P110","35","GPIO","LED3","Medium","None","Output mode (Initial Low)","CMOS","","None","CAN0: CRX
CMP0: VCOUT
CTSU0: TS11
GPT1: GTIOCB
IRQ0: IRQ3
OPS0: GTOVLO
SCI0: CTS_RTS_SS
SCI9: RXD_MISO
SCI9: SCL
SPI1: MISO"
"P111","36","GPIO","LED2","Medium","None","Output mode (Initial Low)","","","None","AGT0: AGTOA
CTSU0: TS12
GPT3: GTIOCA
IRQ0: IRQ4
SCI0: SCK
SCI9: SCK
SPI1: RSPCK"
"P112","37","SCI0_TXD_MOSI","SCI0_TXD_MOSI","Low","","Peripheral mode","CMOS","","None","AGT0: AGTOB
CTSU0: TSCAP
GPT3: GTIOCB
SCI0: SDA
SCI0: TXD_MOSI
SCI1: SCK
SPI1: SSL0"
"P113","38","GPIO","LED1","Medium","","Output mode (Initial Low)","","","None","GPT2: GTIOCA"
"P200","27","GPIO","RS485_TERM","","None","Input mode","","","","IRQ0: NMI"
"P201","26","","","","","Disabled","","","",""
"P204","24","GPIO","LED9","Low","","Output mode (Initial Low)","CMOS","","None","AGT1: AGTIO
CAC0: CACREF
CTSU0: TS00
GPT4: GTIOCB
IIC0: SCL
OPS0: GTIW
SCI0: SCK
SCI9: SCK
SPI1: RSPCK"
"P205","23","GPIO","LED10","Low","None","Output mode (Initial Low)","CMOS","","None","AGT1: AGTO
CGC0: CLKOUT
CTSU0: TSCAP
GPT4: GTIOCA
IIC1: SCL
IRQ0: IRQ1
OPS0: GTIV
SCI0: SDA
SCI0: TXD_MOSI
SCI9: CTS_RTS_SS
SPI1: SSL0"
"P206","22","GPIO","EOL","Medium","None","Output mode (Initial Low)","CMOS","","None","CTSU0: TS01
IIC1: SDA
IRQ0: IRQ0
OPS0: GTIU
SCI0: RXD_MISO
SCI0: SCL
SPI1: SSL1"
"P212","10","GPIO","P212","","None","Input mode","","","None","AGT1: AGTEE
CGC0: EXTAL
GPT0: GTIOCB
IRQ0: IRQ3
POEG1: GTETRG
SCI1: RXD_MISO
SCI1: SCL"
"P213","9","GPT0_GTIOCA","GTIOCA","","None","Peripheral mode","CMOS","","None","CGC0: XTAL
GPT0: GTIOCA
IRQ0: IRQ2
POEG0: GTETRG
SCI1: SDA
SCI1: TXD_MOSI"
"P214","7","GPIO","P214","","","Input mode","","","","CGC0: XCOUT"
"P215","6","GPIO","P215","","","Input mode","","","","CGC0: XCIN"
"P300","32","DEBUG0_SWCLK","SWCLK","Low","","Peripheral mode","","","None","DEBUG0: SWCLK
GPT0: GTIOCA
OPS0: GTOUUP
SPI1: SSL1"
"P301","31","GPIO","LED5","Medium","None","Output mode (Initial Low)","","","None","AGT0: AGTIO
CTSU0: TS09
GPT4: GTIOCB
IRQ0: IRQ6
OPS0: GTOULO
SCI9: CTS_RTS_SS
SPI1: SSL2"
"P302","30","GPIO","LED6","Medium","None","Output mode (Initial Low)","","","None","CTSU0: TS08
GPT4: GTIOCA
IRQ0: IRQ5
OPS0: GTOUUP
SPI1: SSL3"
"P303","29","GPIO","LED7","Low","","Output mode (Initial Low)","","","None","CTSU0: TS02
GPT1: GTIOCB"
"P304","28","GPIO","LED8","Low","","Output mode (Initial Low)","","","None","GPT1: GTIOCA"
"P400","1","GPIO","","","None","Input mode","","","None","AGT1: AGTIO
CAC0: CACREF
CTSU0: TS20
GPT6: GTIOCA
IIC0: SCL
IRQ0: IRQ0
SCI0: SCK
SCI1: SCK"
"P401","2","GPIO","","","None","Input mode","","","None","CAN0: CTX
CTSU0: TS19
GPT6: GTIOCB
IIC0: SDA
IRQ0: IRQ5
POEG0: GTETRG
SCI0: CTS_RTS_SS
SCI1: SDA
SCI1: TXD_MOSI"
"P402","3","GPIO","","","None","Input mode","","","None","CAN0: CRX
CTSU0: TS18
GPT3: GTIOCB
IRQ0: IRQ4
SCI1: RXD_MISO
SCI1: SCL"
"P403","4","GPIO","","","","Input mode","","","None","CTSU0: TS17
GPT3: GTIOCA
SCI1: CTS_RTS_SS"
"P407","16","GPIO","LED11","Low","","Output mode (Initial Low)","CMOS","","None","ADC0: ADTRG
AGT0: AGTIO
CTSU0: TS03
GPT0: GTIOCA
IIC0: SDA
RTC0: RTCOUT
SCI0: CTS_RTS_SS
SPI1: SSL3
USBFS0: VBUS"
"P408","15","GPIO","LED12","Low","None","Output mode (Initial Low)","CMOS","","None","CTSU0: TS04
GPT5: GTIOCB
IIC0: SCL
IRQ0: IRQ7
OPS0: GTOWLO
SCI9: RXD_MISO
SCI9: SCL"
"P409","14","GPIO","LED13","Low","None","Output mode (Initial Low)","CMOS","","None","CTSU0: TS05
GPT5: GTIOCA
IRQ0: IRQ6
OPS0: GTOWUP
SCI0: SDA
SCI0: TXD_MOSI
SCI9: SDA
SCI9: TXD_MOSI"
"P410","13","GPIO","LED14","Low","None","Output mode (Initial Low)","CMOS","","None","AGT1: AGTOB
CTSU0: TS06
GPT6: GTIOCB
IRQ0: IRQ5
OPS0: GTOVLO
SCI0: RXD_MISO
SCI0: SCL
SPI0: MISO"
"P411","12","GPIO","LED15","Low","None","Output mode (Initial Low)","CMOS","","None","AGT1: AGTOA
CTSU0: TS07
GPT6: GTIOCA
IRQ0: IRQ4
OPS0: GTOVUP
SCI0: SDA
SCI0: TXD_MOSI
SPI0: MOSI"
"P500","49","GPIO","SW4","","","Input mode","","","None","ADC0: AN13
CTSU0: TS27
DAC121: DA"
"P501","50","GPIO","SW5","","","Input mode","","","None","ADC0: AN12
OPAMP3: AMP+"
"P502","51","GPIO","SW6","","","Input mode","","","None","ADC0: AN11
OPAMP3: AMP-"
"P914","19","","","","","Disabled","","","","USBFS0: USBDP"
"P915","18","","","","","Disabled","","","","USBFS0: USBDM"
"RES","25","","","","","","","","",""
"VCC","11","","","","","","","","",""
"VCC","39","","","","","","","","",""
"VCCUSB","20","USBFS0_VCCUSB","","","","","","","",""
"VCCUSBLDO","21","USBFS0_VCCUSBLDO","","","","","","","",""
"VCL","5","","","","","","","","",""
"VSS","8","","","","","","","","",""
"VSS","40","","","","","","","","",""
"VSSUSB","17","USBFS0_VSSUSB","","","","","","","",""
